…
File inventories expose both declared and resolved paths, format,
encoding, time zone, role, data state, device, storage type, expected
size, and availability. Git LFS-backed files are identified without
requiring a local Git LFS installation.

Variable inventories can be narrowed by dataset, file group, semantic
term, or primary status:

``` r

glc_variables(x, dataset_id = "DS001")
#> # A tibble: 33 × 13
#>    dataset_id file_group file_group_id name    label unit  type  term  term_name
#>    <chr>           <int> <chr>         <chr>   <chr> <chr> <chr> <chr> <chr>    
#>  1 DS001               1 DS001:1       DATE/T… Time… N/A   guess other DATE/TIME
#>  2 DS001               1 DS001:1       MS      Unkn… Unkn… guess other MS       
#>  3 DS001               1 DS001:1       EVENT   Occu… 0 or… guess other EVENT    
#>  4 DS001               1 DS001:1       TEMPER… Skin… °C    guess other TEMPERAT…
#>  5 DS001               1 DS001:1       EXT TE… envi… °C    guess other EXT. TEM…
#>  6 DS001               1 DS001:1       ORIENT… Unkn… Unkn… guess other ORIENTAT…
#>  7 DS001               1 DS001:1       PIM     Acce… Unkn… guess other PIM      
#>  8 DS001               1 DS001:1       TAT     Acce… Unkn… guess other TAT      
#>  9 DS001               1 DS001:1       ZCM     Acce… Unkn… guess other ZCM      
#> 10 DS001               1 DS001:1       PIMn    Norm… Unkn… guess other PIMn     
#> # ℹ 23 more rows
#> # ℹ 4 more variables: calibration <chr>, primary <lgl>, factor_values <list>,
#> #   factor_labels <list>
…
