…
In interactive sessions,
[`glc_read()`](https://tscnlab.github.io/glc-dp-r/reference/glc_read.md)
displays progress across the selected files. Set `progress = FALSE` to
suppress the indicator, for example in a script that manages its own
progress reporting.

The result has one row per compatible file group and stores each
imported table in its `data` list-column. Inspect or process groups
separately when their roles, modalities, or schemas differ.

``` r

collection$data[[1]]
#> # A tibble: 60,043 × 6
#>    LIGHT .glc_dataset_id .glc_file_group .glc_participant_id .glc_source_file   
#>    <dbl> <chr>           <chr>           <chr>               <chr>              
#>  1  809. DS001           DS001:1         201                 data/datasets/201_…
#>  2  806. DS001           DS001:1         201                 data/datasets/201_…
#>  3  738. DS001           DS001:1         201                 data/datasets/201_…
#>  4  736. DS001           DS001:1         201                 data/datasets/201_…
#>  5  716. DS001           DS001:1         201                 data/datasets/201_…
#>  6  736. DS001           DS001:1         201                 data/datasets/201_…
#>  7  753. DS001           DS001:1         201                 data/datasets/201_…
#>  8  719. DS001           DS001:1         201                 data/datasets/201_…
#>  9  713. DS001           DS001:1         201                 data/datasets/201_…
#> 10  771. DS001           DS001:1         201                 data/datasets/201_…
#> # ℹ 60,033 more rows
#> # ℹ 1 more variable: .glc_datetime <dttm>
```
…
[`glc_collect()`](https://tscnlab.github.io/glc-dp-r/reference/glc_collect.md)
checks that the selected groups have compatible columns, types, time
zones, modalities, roles, data states, and datetime specifications
before combining them. Its default output maps the dataset id to `Id`,
the participant id to `participant_Id`, and adds `Datetime` and
`file.name`. Internal `.glc_*` provenance columns are removed from this
analysis-ready result, matching the core conventions described in
[LightLogR’s import
documentation](https://tscnlab.github.io/LightLogR/reference/import_Dataset.html).

``` r

light_data <- glc_collect(collection)
light_data
#> # A tibble: 60,043 × 6
#> # Groups:   Id [1]
#>    LIGHT Id    file_group_id participant_Id Datetime            file.name       
#>    <dbl> <fct> <chr>         <chr>          <dttm>              <chr>           
#>  1  809. DS001 DS001:1       201            2023-08-14 10:55:21 201_actlumus_Lo…
#>  2  806. DS001 DS001:1       201            2023-08-14 10:55:31 201_actlumus_Lo…
#>  3  738. DS001 DS001:1       201            2023-08-14 10:55:41 201_actlumus_Lo…
#>  4  736. DS001 DS001:1       201            2023-08-14 10:55:51 201_actlumus_Lo…
#>  5  716. DS001 DS001:1       201            2023-08-14 10:56:01 201_actlumus_Lo…
#>  6  736. DS001 DS001:1       201            2023-08-14 10:56:11 201_actlumus_Lo…
#>  7  753. DS001 DS001:1       201            2023-08-14 10:56:21 201_actlumus_Lo…
#>  8  719. DS001 DS001:1       201            2023-08-14 10:56:31 201_actlumus_Lo…
#>  9  713. DS001 DS001:1       201            2023-08-14 10:56:41 201_actlumus_Lo…
#> 10  771. DS001 DS001:1       201            2023-08-14 10:56:51 201_actlumus_Lo…
#> # ℹ 60,033 more rows
```

The result can be passed directly to LightLogR. Continue with its guides
to [visualizing light logger
data](https://tscnlab.github.io/LightLogR/articles/Visualizations.html)
or [calculating light exposure
metrics](https://tscnlab.github.io/LightLogR/articles/Metrics.html).

Use `standardize = "none"` to leave the source columns and `.glc_*`
provenance columns unchanged:

``` r

source_data <- glc_collect(sample, standardize = "none")
source_data
#> # A tibble: 100 × 6
#>    LIGHT .glc_dataset_id .glc_file_group .glc_participant_id .glc_source_file   
#>    <dbl> <chr>           <chr>           <chr>               <chr>              
#>  1  809. DS001           DS001:1         201                 data/datasets/201_…
#>  2  806. DS001           DS001:1         201                 data/datasets/201_…
#>  3  738. DS001           DS001:1         201                 data/datasets/201_…
#>  4  736. DS001           DS001:1         201                 data/datasets/201_…
#>  5  716. DS001           DS001:1         201                 data/datasets/201_…
#>  6  736. DS001           DS001:1         201                 data/datasets/201_…
#>  7  753. DS001           DS001:1         201                 data/datasets/201_…
#>  8  719. DS001           DS001:1         201                 data/datasets/201_…
#>  9  713. DS001           DS001:1         201                 data/datasets/201_…
#> 10  771. DS001           DS001:1         201                 data/datasets/201_…
#> # ℹ 90 more rows
#> # ℹ 1 more variable: .glc_datetime <dttm>
```
…
