…
#> 2 DS002      2.0.0          CG2024   P001           TRUE                  
#> # ℹ 8 more variables: timezone <chr>, latitude <dbl>, longitude <dbl>,
#> #   file_group_count <int>, file_count <int>, modalities <list>,
#> #   device_ids <list>, primary_variables <list>
glc_files(x, dataset_id = "DS001")
#> # A tibble: 1 × 19
#>   dataset_id file_group file_group_id participant_id study_id path              
#>   <chr>           <int> <chr>         <chr>          <chr>    <chr>             
#> 1 DS001               1 DS001:1       201            CG2024   data/datasets/201…
#> # ℹ 13 more variables: declared_path <chr>, format <chr>, encoding <chr>,
#> #   timezone <chr>, role <chr>, data_state <chr>, modalities <list>,
#> #   device_id <chr>, storage <chr>, expected_bytes <dbl>, lfs_oid <chr>,
#> #   blob_sha <chr>, available <lgl>
glc_variables(x, dataset_id = "DS001")
#> # A tibble: 33 × 13
#>    dataset_id file_group file_group_id name    label unit  type  term  term_name
#>    <chr>           <int> <chr>         <chr>   <chr> <chr> <chr> <chr> <chr>    
#>  1 DS001               1 DS001:1       DATE/T… Time… N/A   guess other DATE/TIME
#>  2 DS001               1 DS001:1       MS      Unkn… Unkn… guess other MS       
#>  3 DS001               1 DS001:1       EVENT   Occu… 0 or… guess other EVENT    
#>  4 DS001               1 DS001:1       TEMPER… Skin… °C    guess other TEMPERAT…
#>  5 DS001               1 DS001:1       EXT TE… envi… °C    guess other EXT. TEM…
#>  6 DS001               1 DS001:1       ORIENT… Unkn… Unkn… guess other ORIENTAT…
#>  7 DS001               1 DS001:1       PIM     Acce… Unkn… guess other PIM      
#>  8 DS001               1 DS001:1       TAT     Acce… Unkn… guess other TAT      
#>  9 DS001               1 DS001:1       ZCM     Acce… Unkn… guess other ZCM      
#> 10 DS001               1 DS001:1       PIMn    Norm… Unkn… guess other PIMn     
#> # ℹ 23 more rows
#> # ℹ 4 more variables: calibration <chr>, primary <lgl>, factor_values <list>,
#> #   factor_labels <list>
```
…
selected <- glc_read(
  x,
  dataset_id = "DS001",
  file_group = file_group,
  files = files,
  variables = c("LIGHT"),
  n_max = 1000
)
selected$data
#> [[1]]
#> # A tibble: 1,000 × 6
#>    LIGHT .glc_dataset_id .glc_file_group .glc_participant_id .glc_source_file   
#>    <dbl> <chr>           <chr>           <chr>               <chr>              
#>  1  809. DS001           DS001:1         201                 data/datasets/201_…
#>  2  806. DS001           DS001:1         201                 data/datasets/201_…
#>  3  738. DS001           DS001:1         201                 data/datasets/201_…
#>  4  736. DS001           DS001:1         201                 data/datasets/201_…
#>  5  716. DS001           DS001:1         201                 data/datasets/201_…
#>  6  736. DS001           DS001:1         201                 data/datasets/201_…
#>  7  753. DS001           DS001:1         201                 data/datasets/201_…
#>  8  719. DS001           DS001:1         201                 data/datasets/201_…
#>  9  713. DS001           DS001:1         201                 data/datasets/201_…
#> 10  771. DS001           DS001:1         201                 data/datasets/201_…
#> # ℹ 990 more rows
#> # ℹ 1 more variable: .glc_datetime <dttm>
```
…
collection[, setdiff(names(collection), "data")]
#> <GLC data collection>
#> File groups: 1
#> Warning: Unknown or uninitialised column: `data`.
#> Rows: 0
#> # A tibble: 1 × 17
#>   dataset_id file_group file_group_id study_id participant_id device_id
#>   <chr>           <int> <chr>         <chr>    <chr>          <chr>    
#> 1 DS001               1 DS001:1       CG2024   201            D001     
#> # ℹ 11 more variables: modalities <list>, role <chr>, data_state <chr>,
#> #   timezone <chr>, datetime_source <chr>, datetime_date <chr>,
#> #   datetime_format <chr>, datetime_time <chr>, datetime_time_format <chr>,
#> #   primary_variables <list>, files <list>
collection$data[[1]]
#> # A tibble: 60,043 × 38
#>    `DATE/TIME`    MS EVENT TEMPERATURE `EXT TEMPERATURE` ORIENTATION   PIM  PIMn
#>    <chr>       <dbl> <dbl>       <dbl>             <dbl>       <dbl> <dbl> <dbl>
#>  1 14/08/2023…     0     0        28.9                 0          16     0   0  
#>  2 14/08/2023…     0     0        28.9                 0          16     0   0  
#>  3 14/08/2023…     0     0        28.8                 0          16     6   0.6
#>  4 14/08/2023…     0     0        28.8                 0          16     0   0  
#>  5 14/08/2023…     0     0        28.8                 0          16     0   0  
#>  6 14/08/2023…     0     0        28.7                 0          16     0   0  
#>  7 14/08/2023…     0     0        28.7                 0          16     0   0  
#>  8 14/08/2023…     0     0        28.7                 0          16     0   0  
#>  9 14/08/2023…     0     0        28.6                 0          16     0   0  
#> 10 14/08/2023…     0     0        28.6                 0          16     0   0  
#> # ℹ 60,033 more rows
#> # ℹ 30 more variables: TAT <dbl>, TATn <dbl>, ZCM <dbl>, ZCMn <dbl>,
#> #   LIGHT <dbl>, `AMB LIGHT` <dbl>, `RED LIGHT` <dbl>, `GREEN LIGHT` <dbl>,
#> #   `BLUE LIGHT` <dbl>, `IR LIGHT` <dbl>, `UVA LIGHT` <dbl>, `UVB LIGHT` <dbl>,
#> #   STATE <dbl>, CAP_SENS_1 <dbl>, CAP_SENS_2 <dbl>, F1 <dbl>, F2 <dbl>,
#> #   F3 <dbl>, F4 <dbl>, F5 <dbl>, F6 <dbl>, F7 <dbl>, F8 <dbl>,
#> #   `MELANOPIC EDI` <dbl>, CLEAR <dbl>, .glc_dataset_id <chr>, …
```
…
## Collect analysis-ready data

Combine file groups only when their structures and meanings are
compatible:

``` r

light_data <- glc_collect(collection)
light_data
#> # A tibble: 60,043 × 37
#> # Groups:   Id [1]
#>    `DATE/TIME`    MS EVENT TEMPERATURE `EXT TEMPERATURE` ORIENTATION   PIM  PIMn
#>    <chr>       <dbl> <dbl>       <dbl>             <dbl>       <dbl> <dbl> <dbl>
#>  1 14/08/2023…     0     0        28.9                 0          16     0   0  
#>  2 14/08/2023…     0     0        28.9                 0          16     0   0  
#>  3 14/08/2023…     0     0        28.8                 0          16     6   0.6
#>  4 14/08/2023…     0     0        28.8                 0          16     0   0  
#>  5 14/08/2023…     0     0        28.8                 0          16     0   0  
#>  6 14/08/2023…     0     0        28.7                 0          16     0   0  
#>  7 14/08/2023…     0     0        28.7                 0          16     0   0  
#>  8 14/08/2023…     0     0        28.7                 0          16     0   0  
#>  9 14/08/2023…     0     0        28.6                 0          16     0   0  
#> 10 14/08/2023…     0     0        28.6                 0          16     0   0  
#> # ℹ 60,033 more rows
#> # ℹ 29 more variables: TAT <dbl>, TATn <dbl>, ZCM <dbl>, ZCMn <dbl>,
#> #   LIGHT <dbl>, `AMB LIGHT` <dbl>, `RED LIGHT` <dbl>, `GREEN LIGHT` <dbl>,
#> #   `BLUE LIGHT` <dbl>, `IR LIGHT` <dbl>, `UVA LIGHT` <dbl>, `UVB LIGHT` <dbl>,
#> #   STATE <dbl>, CAP_SENS_1 <dbl>, CAP_SENS_2 <dbl>, F1 <dbl>, F2 <dbl>,
#> #   F3 <dbl>, F4 <dbl>, F5 <dbl>, F6 <dbl>, F7 <dbl>, F8 <dbl>,
#> #   `MELANOPIC EDI` <dbl>, CLEAR <dbl>, Id <fct>, participant_Id <chr>, …
```
…
